{
  "type": "service_account",
  "project_id": "vangvietnghi-new",
  "private_key_id": "52b1326abd2164e9b013a174727b80ed702728b5",
  "private_key": "-----BEGIN PRIVATE KEY-----\nMIIEvgIBADANBgkqhkiG9w0BAQEFAASCBKgwggSkAgEAAoIBAQDSiZndN6SP5xpd\np0f9vvE7i/VnK7PljfnCI4belygIjRqZMHkYV1pSJz8XX8LPUM8NPmHef/JmZIT3\navTwjYVxnSS6uhbydDRiOJ60/uGpzk5qcpSPoJ1N1LINmzp4feq8Ku+nidbaTnN2\nzj2CA0Cu5VqgmIQdzHFyOqweB1qTufnXFGRlMl7pHXPWc0vqYdVZVIQ1d2Y0E8Ck\npIV8mzQmb8TWcRInaAWO7MlAUFiiqWEMmbx3rGrzDcUeVjP0QHgp+wiHSsWeVeVW\nYU1/eDiD9uex7mM6+vu9wBZAj2ylyrYWWVtGmRmUI9WGs8SrFfe2PgsCLb85NxGH\n84vd94n9AgMBAAECggEBAIfc7EHpinSiukz9imOhOKMoqnCtryXP/QDfVEWIXflG\ntYdt1Hd0x4CEex5mWZzXlQYC371p689Pxs6zYuVpLlgnBHDLbcuAWd2YlDJQ2Odv\njwL6dgxJpbl4LH7DUXQ4LabIPmdreA7g2XotlVu1JaS3tUg1o+xm5j7ExhWKwVTa\nXyf1tL7+jLoP0/vI7e+vhFZqYe/dDj+aUNjV/hsoNbkHGiqYjGZxL7B+TuIbYrFd\npoZDSQG+va1u456Bq3bCOD6QIUBJqI/dX/0d9ffVz2ydxMffbLXVhUvsj1YLyOVP\nZt9NO8ZNIO3UXx6B1fo58SxUU5Eg7gh/JubjH73MxLECgYEA7+mY+X2ARfswhr3q\n1mIfB83SdpKI0udQgxQ7cQd4O+hSsgOpE0SB7cLVpdPZvukpi21NQPVsEwVf4R01\ni3ZW9DzaLlqCOCNgnxXeFu+XCYieJ/fBGPbjCeQUqLq7x6wF3XOtPdWblKLGKm52\ngvHcVmLlFYTEbob+wcfMz3c/fksCgYEA4Ke+mnRTq3wTDHQZgai4pUSGPWsm9Cup\nHMLaNSlvFr43sCWMOIS58MGeUjlimJUCRLwHNu6zgI5f/gZG7Sf+4HyDX9/d1JVi\n9V3lFgia5hZP84hGAfWhkxLGpbRYMNI0JokH0FO2N8JisuXfCuGvVNL8wgd+MQqp\nVvQfoDAdy9cCgYA+Va+Ng3JEvJNLLyVJNo1hdbTtYf1y7u8YX7ViFNLEngR+hDz1\n6KLpp+njADxfQi2tMGUWL6448viKgRBcgA7vvq/hw1p6Q5bjPsdJpk7UB08wi0r8\ntYkgFMbZYEtSAfw0Ic4tdsbJw9FBTRo1w6nAOEnVYX24ShL/Pm6UqSMyKQKBgBsr\nblvTscLNkKgy6lrKAvrJ3MpUyTNCjINT9Xv0dOD1RFrjT6AOPUamw/UBx7DYZJvX\nea/lEoR7s5RPQgiwi5yuslzIAFYTcxJltq0BgWpOTIERfBYElPPqk2e69eeBpJj8\nfZtuZF09/x3Puzffr4q8saDtsw9PUMeZYrHG3/OlAoGBAK9+pLOVnkLpL4WOAsVM\n8KR1kJVrxK+sg5nL0wlWQXLZ8fon8H39iSQTVzwCf+mxnRx7B4+Z+B8Ge2iwHuf+\ndKS/HLFnj5zHLhU1/RH6S8gMvNQfspeBNfnb9n0xYJTE8446OnweY4i3u5oPzt7T\nRFxXcEng/+YG+OLFydxnpIZP\n-----END PRIVATE KEY-----\n",
  "client_email": "786251877929-compute@developer.gserviceaccount.com",
  "client_id": "103148662141421592120",
  "auth_uri": "https://accounts.google.com/o/oauth2/auth",
  "token_uri": "https://accounts.google.com/o/oauth2/token",
  "auth_provider_x509_cert_url": "https://www.googleapis.com/oauth2/v1/certs",
  "client_x509_cert_url": "https://www.googleapis.com/robot/v1/metadata/x509/786251877929-compute%40developer.gserviceaccount.com"
}
